<svg xmlns="http://www.w3.org/2000/svg" viewBox="0 0 60 60">
  <path id="play" d="M23.68,46.32l7.66,7.62L30,54A24.05,24.05,0,0,1,6,32H9A21,21,0,0,0,21,49ZM30,6l-1.33.06,7.66,7.62L39,11A20.94,20.94,0,0,1,51,28h3A24,24,0,0,0,30,6ZM21.53,42,40.48,30,21.53,18Z" fill="#fff"/>
</svg>
